{
  "wallets": [
    {
      "id": 1,
      "name": "gift cards",
      "type": "GIFT"
    },
    {
      "id": 2,
      "name": "food cards",
      "type": "FOOD"
    }
  ],
  "companies": [
    {
      "id": 1,
      "name": "Wedoogift",
      "balance": 1000
    },
    {
      "id": 2,
      "name": "Wedoofood",
      "balance": 3000
    }
  ],
  "users": [
    {
      "id": 1,
      "balances": [
        {
          "wallet_id": 1,
          "amount": 100
        }
      ]
    },
    {
      "id": 2,
      "balances": [
      ]
    },
    {
      "id": 3,
      "balances": []
    }
  ],
  "distributions": [
  ]
}